%YAML 1.1
%TAG !u! tag:unity3d.com,2011:
--- !u!1001 &100100000
Prefab:
  m_ObjectHideFlags: 1
  serializedVersion: 2
  m_Modification:
    m_TransformParent: {fileID: 0}
    m_Modifications: []
    m_RemovedComponents: []
  m_SourcePrefab: {fileID: 0}
  m_RootGameObject: {fileID: 1453367873372422}
  m_IsPrefabAsset: 1
--- !u!1 &1453367873372422
GameObject:
  m_ObjectHideFlags: 0
  m_CorrespondingSourceObject: {fileID: 0}
  m_PrefabInternal: {fileID: 100100000}
  serializedVersion: 6
  m_Component:
  - component: {fileID: 4047055483969896}
  - component: {fileID: 114965669751787322}
  m_Layer: 0
  m_Name: KeyFrameAnimationController
  m_TagString: Untagged
  m_Icon: {fileID: 0}
  m_NavMeshLayer: 0
  m_StaticEditorFlags: 0
  m_IsActive: 1
--- !u!4 &4047055483969896
Transform:
  m_ObjectHideFlags: 1
  m_CorrespondingSourceObject: {fileID: 0}
  m_PrefabInternal: {fileID: 100100000}
  m_GameObject: {fileID: 1453367873372422}
  m_LocalRotation: {x: 0, y: 0, z: 0, w: 1}
  m_LocalPosition: {x: 1.1937345, y: -0.3244009, z: -0.9052572}
  m_LocalScale: {x: 1, y: 1, z: 1}
  m_Children: []
  m_Father: {fileID: 0}
  m_RootOrder: 0
  m_LocalEulerAnglesHint: {x: 0, y: 0, z: 0}
--- !u!114 &114965669751787322
MonoBehaviour:
  m_ObjectHideFlags: 1
  m_CorrespondingSourceObject: {fileID: 0}
  m_PrefabInternal: {fileID: 100100000}
  m_GameObject: {fileID: 1453367873372422}
  m_Enabled: 1
  m_EditorHideFlags: 0
  m_Script: {fileID: 11500000, guid: c1d98a6a4d6c37747954aaba0e6be33a, type: 3}
  m_Name: 
  m_EditorClassIdentifier: 
  _keyFrameTimeStampManager: {fileID: 0}
  _targetTransform: {fileID: 0}
  savePath: Assets/Animations/
  fileName: Robot Kyle-Animation-IK
  captureKeyFrameKey: 107
  stopRecordKey: 119
  showLogGUI: 0
  maxNumberOfFrames: 50
  changeTimeScale: 0
  timeScaleOnStart: 0
  timeScaleOnRecord: 1
  recordBlendShape: 0
